Welcome to psychmeta! • psychmeta
…
(gonzalezmule <- ma_r(ma_method = "ic", rxyi = rxyi, n = n,
                     construct_x = "GMA",
                     construct_y = "OCB",
                     rxx = rxxi, ryy = ryyi, ux = ux, indirect_rr_x = TRUE,
                     moderators = c("Rating source", "Type", "Published"),
                     moderator_type = "hierarchical",
                     control = control_psychmeta(hs_override = TRUE),
                     data = data_r_gonzalezmule_2014))

##  **** Running ma_r: Meta-analysis of correlations ****

## Overview tibble of psychmeta meta-analysis of correlations  
## ---------------------------------------------------------------------- 
## # A tibble: 35 x 11
##    analysis_id pair_id construct_x construct_y analysis_type     `Rating source`
##  *       <int>   <int> <chr>       <chr>       <fct>             <fct>          
##  1           1       1 GMA         OCB         Overall           All Levels     
##  2           2       1 GMA         OCB         Simple Moderator  Self           
##  3           3       1 GMA         OCB         Simple Moderator  Supervisor     
##  4           4       1 GMA         OCB         Simple Moderator  All Levels     
##  5           5       1 GMA         OCB         Simple Moderator  All Levels     
##  6           6       1 GMA         OCB         Simple Moderator  All Levels     
##  7           7       1 GMA         OCB         Simple Moderator  All Levels     
##  8           8       1 GMA         OCB         Simple Moderator  All Levels     
##  9           9       1 GMA         OCB         Simple Moderator  All Levels     
## 10          10       1 GMA         OCB         Partial Hierarch… Self           
## # … with 25 more rows, and 5 more variables: Type <fct>, Published <fct>,
## #   meta_tables <named list>, escalc <named list>, ad <named list>
## 
## To extract results, try summary() or the get_stuff functions (run ?get_stuff for help).
…
